; ModuleID = 'example3.c'
target datalayout = "e-m:e-i64:64-f80:128-n8:16:32:64-S128"
target triple = "x86_64-pc-linux-gnu"

; Function Attrs: nounwind uwtable
define i32 @main() #0 {
  %1 = alloca i32, align 4
  %b = alloca i32, align 4
  %c = alloca i32, align 4
  %sink = alloca i32, align 4
  %source = alloca i32, align 4
  %N = alloca i32, align 4
  %i = alloca i32, align 4
  store i32 0, i32* %1
  store i32 0, i32* %i, align 4
  br label %2

; <label>:2                                       ; preds = %14, %0
  %3 = load i32* %i, align 4
  %4 = load i32* %N, align 4
  %5 = icmp slt i32 %3, %4
  br i1 %5, label %6, label %17

; <label>:6                                       ; preds = %2
  %7 = load i32* %i, align 4
  %8 = srem i32 %7, 2
  %9 = icmp eq i32 %8, 0
  br i1 %9, label %10, label %12

; <label>:10                                      ; preds = %6
  %11 = load i32* %source, align 4
  store i32 %11, i32* %b, align 4
  br label %14

; <label>:12                                      ; preds = %6
  %13 = load i32* %b, align 4
  store i32 %13, i32* %c, align 4
  br label %14

; <label>:14                                      ; preds = %12, %10
  %15 = load i32* %i, align 4
  %16 = add nsw i32 %15, 1
  store i32 %16, i32* %i, align 4
  br label %2

; <label>:17                                      ; preds = %2
  %18 = load i32* %c, align 4
  store i32 %18, i32* %sink, align 4
  %19 = load i32* %1
  ret i32 %19
}

attributes #0 = { nounwind uwtable "less-precise-fpmad"="false" "no-frame-pointer-elim"="true" "no-frame-pointer-elim-non-leaf" "no-infs-fp-math"="false" "no-nans-fp-math"="false" "stack-protector-buffer-size"="8" "unsafe-fp-math"="false" "use-soft-float"="false" }

!llvm.ident = !{!0}

!0 = metadata !{metadata !"Ubuntu clang version 3.5.2-3ubuntu1 (tags/RELEASE_352/final) (based on LLVM 3.5.2)"}
